^C:\지은\학교\3학년2학기\네트워크 게임 프로그래밍\NETWORKGAME_TEAM\NETWORKGAME\DIEPIO\DIEPIO\STDAFX.CPP
C:\지은\학교\3학년2학기\네트워크 게임 프로그래밍\NETWORKGAME_TEAM\NETWORKGAME\DIEPIO\DIEPIO\DEBUG\DIEPIO.PCH
C:\지은\학교\3학년2학기\네트워크 게임 프로그래밍\NETWORKGAME_TEAM\NETWORKGAME\DIEPIO\DIEPIO\DEBUG\VC142.PDB
C:\지은\학교\3학년2학기\네트워크 게임 프로그래밍\NETWORKGAME_TEAM\NETWORKGAME\DIEPIO\DIEPIO\DEBUG\VC142.IDB
C:\지은\학교\3학년2학기\네트워크 게임 프로그래밍\NETWORKGAME_TEAM\NETWORKGAME\DIEPIO\DIEPIO\DEBUG\STDAFX.OBJ
^C:\지은\학교\3학년2학기\네트워크 게임 프로그래밍\NETWORKGAME_TEAM\NETWORKGAME\DIEPIO\DIEPIO\BITMAPMANAGER.CPP|C:\지은\학교\3학년2학기\네트워크 게임 프로그래밍\NETWORKGAME_TEAM\NETWORKGAME\DIEPIO\DIEPIO\BITMAPRESOURCE.CPP|C:\지은\학교\3학년2학기\네트워크 게임 프로그래밍\NETWORKGAME_TEAM\NETWORKGAME\DIEPIO\DIEPIO\COLLISIONMANAGER.CPP|C:\지은\학교\3학년2학기\네트워크 게임 프로그래밍\NETWORKGAME_TEAM\NETWORKGAME\DIEPIO\DIEPIO\DIEPIO.CPP|C:\지은\학교\3학년2학기\네트워크 게임 프로그래밍\NETWORKGAME_TEAM\NETWORKGAME\DIEPIO\DIEPIO\FRAMEMANAGER.CPP|C:\지은\학교\3학년2학기\네트워크 게임 프로그래밍\NETWORKGAME_TEAM\NETWORKGAME\DIEPIO\DIEPIO\GAMEOBJECT.CPP|C:\지은\학교\3학년2학기\네트워크 게임 프로그래밍\NETWORKGAME_TEAM\NETWORKGAME\DIEPIO\DIEPIO\KEYMGR.CPP|C:\지은\학교\3학년2학기\네트워크 게임 프로그래밍\NETWORKGAME_TEAM\NETWORKGAME\DIEPIO\DIEPIO\LOGO.CPP|C:\지은\학교\3학년2학기\네트워크 게임 프로그래밍\NETWORKGAME_TEAM\NETWORKGAME\DIEPIO\DIEPIO\MAINPROG.CPP|C:\지은\학교\3학년2학기\네트워크 게임 프로그래밍\NETWORKGAME_TEAM\NETWORKGAME\DIEPIO\DIEPIO\MENU.CPP|C:\지은\학교\3학년2학기\네트워크 게임 프로그래밍\NETWORKGAME_TEAM\NETWORKGAME\DIEPIO\DIEPIO\MISSILE.CPP|C:\지은\학교\3학년2학기\네트워크 게임 프로그래밍\NETWORKGAME_TEAM\NETWORKGAME\DIEPIO\DIEPIO\MOUSE.CPP|C:\지은\학교\3학년2학기\네트워크 게임 프로그래밍\NETWORKGAME_TEAM\NETWORKGAME\DIEPIO\DIEPIO\OBJECTMANAGER.CPP|C:\지은\학교\3학년2학기\네트워크 게임 프로그래밍\NETWORKGAME_TEAM\NETWORKGAME\DIEPIO\DIEPIO\OBSTACLE.CPP|C:\지은\학교\3학년2학기\네트워크 게임 프로그래밍\NETWORKGAME_TEAM\NETWORKGAME\DIEPIO\DIEPIO\PLAYER.CPP|C:\지은\학교\3학년2학기\네트워크 게임 프로그래밍\NETWORKGAME_TEAM\NETWORKGAME\DIEPIO\DIEPIO\SCENE.CPP|C:\지은\학교\3학년2학기\네트워크 게임 프로그래밍\NETWORKGAME_TEAM\NETWORKGAME\DIEPIO\DIEPIO\SCENEMANAGER.CPP|C:\지은\학교\3학년2학기\네트워크 게임 프로그래밍\NETWORKGAME_TEAM\NETWORKGAME\DIEPIO\DIEPIO\STAGE.CPP|C:\지은\학교\3학년2학기\네트워크 게임 프로그래밍\NETWORKGAME_TEAM\NETWORKGAME\DIEPIO\DIEPIO\STARTBUTTON.CPP|C:\지은\학교\3학년2학기\네트워크 게임 프로그래밍\NETWORKGAME_TEAM\NETWORKGAME\DIEPIO\DIEPIO\TIMERMANAGER.CPP|C:\지은\학교\3학년2학기\네트워크 게임 프로그래밍\NETWORKGAME_TEAM\NETWORKGAME\DIEPIO\DIEPIO\WAITROOM.CPP
C:\지은\학교\3학년2학기\네트워크 게임 프로그래밍\NETWORKGAME_TEAM\NETWORKGAME\DIEPIO\DIEPIO\DEBUG\VC142.PDB
C:\지은\학교\3학년2학기\네트워크 게임 프로그래밍\NETWORKGAME_TEAM\NETWORKGAME\DIEPIO\DIEPIO\DEBUG\VC142.IDB
C:\지은\학교\3학년2학기\네트워크 게임 프로그래밍\NETWORKGAME_TEAM\NETWORKGAME\DIEPIO\DIEPIO\DEBUG\TIMERMANAGER.OBJ
C:\지은\학교\3학년2학기\네트워크 게임 프로그래밍\NETWORKGAME_TEAM\NETWORKGAME\DIEPIO\DIEPIO\DEBUG\STARTBUTTON.OBJ
C:\지은\학교\3학년2학기\네트워크 게임 프로그래밍\NETWORKGAME_TEAM\NETWORKGAME\DIEPIO\DIEPIO\DEBUG\STAGE.OBJ
C:\지은\학교\3학년2학기\네트워크 게임 프로그래밍\NETWORKGAME_TEAM\NETWORKGAME\DIEPIO\DIEPIO\DEBUG\SCENEMANAGER.OBJ
C:\지은\학교\3학년2학기\네트워크 게임 프로그래밍\NETWORKGAME_TEAM\NETWORKGAME\DIEPIO\DIEPIO\DEBUG\SCENE.OBJ
C:\지은\학교\3학년2학기\네트워크 게임 프로그래밍\NETWORKGAME_TEAM\NETWORKGAME\DIEPIO\DIEPIO\DEBUG\PLAYER.OBJ
C:\지은\학교\3학년2학기\네트워크 게임 프로그래밍\NETWORKGAME_TEAM\NETWORKGAME\DIEPIO\DIEPIO\DEBUG\OBJECTMANAGER.OBJ
C:\지은\학교\3학년2학기\네트워크 게임 프로그래밍\NETWORKGAME_TEAM\NETWORKGAME\DIEPIO\DIEPIO\DEBUG\MOUSE.OBJ
C:\지은\학교\3학년2학기\네트워크 게임 프로그래밍\NETWORKGAME_TEAM\NETWORKGAME\DIEPIO\DIEPIO\DEBUG\MISSILE.OBJ
C:\지은\학교\3학년2학기\네트워크 게임 프로그래밍\NETWORKGAME_TEAM\NETWORKGAME\DIEPIO\DIEPIO\DEBUG\MENU.OBJ
C:\지은\학교\3학년2학기\네트워크 게임 프로그래밍\NETWORKGAME_TEAM\NETWORKGAME\DIEPIO\DIEPIO\DEBUG\MAINPROG.OBJ
C:\지은\학교\3학년2학기\네트워크 게임 프로그래밍\NETWORKGAME_TEAM\NETWORKGAME\DIEPIO\DIEPIO\DEBUG\LOGO.OBJ
C:\지은\학교\3학년2학기\네트워크 게임 프로그래밍\NETWORKGAME_TEAM\NETWORKGAME\DIEPIO\DIEPIO\DEBUG\KEYMGR.OBJ
C:\지은\학교\3학년2학기\네트워크 게임 프로그래밍\NETWORKGAME_TEAM\NETWORKGAME\DIEPIO\DIEPIO\DEBUG\GAMEOBJECT.OBJ
C:\지은\학교\3학년2학기\네트워크 게임 프로그래밍\NETWORKGAME_TEAM\NETWORKGAME\DIEPIO\DIEPIO\DEBUG\FRAMEMANAGER.OBJ
C:\지은\학교\3학년2학기\네트워크 게임 프로그래밍\NETWORKGAME_TEAM\NETWORKGAME\DIEPIO\DIEPIO\DEBUG\DIEPIO.OBJ
C:\지은\학교\3학년2학기\네트워크 게임 프로그래밍\NETWORKGAME_TEAM\NETWORKGAME\DIEPIO\DIEPIO\DEBUG\OBSTACLE.OBJ
C:\지은\학교\3학년2학기\네트워크 게임 프로그래밍\NETWORKGAME_TEAM\NETWORKGAME\DIEPIO\DIEPIO\DEBUG\COLLISIONMANAGER.OBJ
C:\지은\학교\3학년2학기\네트워크 게임 프로그래밍\NETWORKGAME_TEAM\NETWORKGAME\DIEPIO\DIEPIO\DEBUG\BITMAPRESOURCE.OBJ
C:\지은\학교\3학년2학기\네트워크 게임 프로그래밍\NETWORKGAME_TEAM\NETWORKGAME\DIEPIO\DIEPIO\DEBUG\BITMAPMANAGER.OBJ
C:\지은\학교\3학년2학기\네트워크 게임 프로그래밍\NETWORKGAME_TEAM\NETWORKGAME\DIEPIO\DIEPIO\DEBUG\WAITROOM.OBJ
^C:\지은\학교\3학년2학기\네트워크 게임 프로그래밍\NETWORKGAME_TEAM\NETWORKGAME\DIEPIO\DIEPIO\BITMAPMANAGER.CPP
C:\지은\학교\3학년2학기\네트워크 게임 프로그래밍\NETWORKGAME_TEAM\NETWORKGAME\DIEPIO\DIEPIO\DEBUG\VC142.PDB
^C:\지은\학교\3학년2학기\네트워크 게임 프로그래밍\NETWORKGAME_TEAM\NETWORKGAME\DIEPIO\DIEPIO\BITMAPRESOURCE.CPP
C:\지은\학교\3학년2학기\네트워크 게임 프로그래밍\NETWORKGAME_TEAM\NETWORKGAME\DIEPIO\DIEPIO\DEBUG\VC142.PDB
^C:\지은\학교\3학년2학기\네트워크 게임 프로그래밍\NETWORKGAME_TEAM\NETWORKGAME\DIEPIO\DIEPIO\COLLISIONMANAGER.CPP
C:\지은\학교\3학년2학기\네트워크 게임 프로그래밍\NETWORKGAME_TEAM\NETWORKGAME\DIEPIO\DIEPIO\DEBUG\VC142.PDB
^C:\지은\학교\3학년2학기\네트워크 게임 프로그래밍\NETWORKGAME_TEAM\NETWORKGAME\DIEPIO\DIEPIO\OBSTACLE.CPP
C:\지은\학교\3학년2학기\네트워크 게임 프로그래밍\NETWORKGAME_TEAM\NETWORKGAME\DIEPIO\DIEPIO\DEBUG\VC142.PDB
^C:\지은\학교\3학년2학기\네트워크 게임 프로그래밍\NETWORKGAME_TEAM\NETWORKGAME\DIEPIO\DIEPIO\DIEPIO.CPP
C:\지은\학교\3학년2학기\네트워크 게임 프로그래밍\NETWORKGAME_TEAM\NETWORKGAME\DIEPIO\DIEPIO\DEBUG\VC142.PDB
^C:\지은\학교\3학년2학기\네트워크 게임 프로그래밍\NETWORKGAME_TEAM\NETWORKGAME\DIEPIO\DIEPIO\FRAMEMANAGER.CPP
C:\지은\학교\3학년2학기\네트워크 게임 프로그래밍\NETWORKGAME_TEAM\NETWORKGAME\DIEPIO\DIEPIO\DEBUG\VC142.PDB
^C:\지은\학교\3학년2학기\네트워크 게임 프로그래밍\NETWORKGAME_TEAM\NETWORKGAME\DIEPIO\DIEPIO\GAMEOBJECT.CPP
C:\지은\학교\3학년2학기\네트워크 게임 프로그래밍\NETWORKGAME_TEAM\NETWORKGAME\DIEPIO\DIEPIO\DEBUG\VC142.PDB
^C:\지은\학교\3학년2학기\네트워크 게임 프로그래밍\NETWORKGAME_TEAM\NETWORKGAME\DIEPIO\DIEPIO\KEYMGR.CPP
C:\지은\학교\3학년2학기\네트워크 게임 프로그래밍\NETWORKGAME_TEAM\NETWORKGAME\DIEPIO\DIEPIO\DEBUG\VC142.PDB
^C:\지은\학교\3학년2학기\네트워크 게임 프로그래밍\NETWORKGAME_TEAM\NETWORKGAME\DIEPIO\DIEPIO\LOGO.CPP
C:\지은\학교\3학년2학기\네트워크 게임 프로그래밍\NETWORKGAME_TEAM\NETWORKGAME\DIEPIO\DIEPIO\DEBUG\VC142.PDB
^C:\지은\학교\3학년2학기\네트워크 게임 프로그래밍\NETWORKGAME_TEAM\NETWORKGAME\DIEPIO\DIEPIO\MAINPROG.CPP
C:\지은\학교\3학년2학기\네트워크 게임 프로그래밍\NETWORKGAME_TEAM\NETWORKGAME\DIEPIO\DIEPIO\DEBUG\VC142.PDB
^C:\지은\학교\3학년2학기\네트워크 게임 프로그래밍\NETWORKGAME_TEAM\NETWORKGAME\DIEPIO\DIEPIO\MISSILE.CPP
C:\지은\학교\3학년2학기\네트워크 게임 프로그래밍\NETWORKGAME_TEAM\NETWORKGAME\DIEPIO\DIEPIO\DEBUG\VC142.PDB
^C:\지은\학교\3학년2학기\네트워크 게임 프로그래밍\NETWORKGAME_TEAM\NETWORKGAME\DIEPIO\DIEPIO\MOUSE.CPP
C:\지은\학교\3학년2학기\네트워크 게임 프로그래밍\NETWORKGAME_TEAM\NETWORKGAME\DIEPIO\DIEPIO\DEBUG\VC142.PDB
^C:\지은\학교\3학년2학기\네트워크 게임 프로그래밍\NETWORKGAME_TEAM\NETWORKGAME\DIEPIO\DIEPIO\OBJECTMANAGER.CPP
C:\지은\학교\3학년2학기\네트워크 게임 프로그래밍\NETWORKGAME_TEAM\NETWORKGAME\DIEPIO\DIEPIO\DEBUG\VC142.PDB
^C:\지은\학교\3학년2학기\네트워크 게임 프로그래밍\NETWORKGAME_TEAM\NETWORKGAME\DIEPIO\DIEPIO\PLAYER.CPP
C:\지은\학교\3학년2학기\네트워크 게임 프로그래밍\NETWORKGAME_TEAM\NETWORKGAME\DIEPIO\DIEPIO\DEBUG\VC142.PDB
^C:\지은\학교\3학년2학기\네트워크 게임 프로그래밍\NETWORKGAME_TEAM\NETWORKGAME\DIEPIO\DIEPIO\SCENE.CPP
C:\지은\학교\3학년2학기\네트워크 게임 프로그래밍\NETWORKGAME_TEAM\NETWORKGAME\DIEPIO\DIEPIO\DEBUG\VC142.PDB
^C:\지은\학교\3학년2학기\네트워크 게임 프로그래밍\NETWORKGAME_TEAM\NETWORKGAME\DIEPIO\DIEPIO\SCENEMANAGER.CPP
C:\지은\학교\3학년2학기\네트워크 게임 프로그래밍\NETWORKGAME_TEAM\NETWORKGAME\DIEPIO\DIEPIO\DEBUG\VC142.PDB
^C:\지은\학교\3학년2학기\네트워크 게임 프로그래밍\NETWORKGAME_TEAM\NETWORKGAME\DIEPIO\DIEPIO\STAGE.CPP
C:\지은\학교\3학년2학기\네트워크 게임 프로그래밍\NETWORKGAME_TEAM\NETWORKGAME\DIEPIO\DIEPIO\DEBUG\VC142.PDB
^C:\지은\학교\3학년2학기\네트워크 게임 프로그래밍\NETWORKGAME_TEAM\NETWORKGAME\DIEPIO\DIEPIO\TIMERMANAGER.CPP
C:\지은\학교\3학년2학기\네트워크 게임 프로그래밍\NETWORKGAME_TEAM\NETWORKGAME\DIEPIO\DIEPIO\DEBUG\VC142.PDB
^C:\지은\학교\3학년2학기\네트워크 게임 프로그래밍\NETWORKGAME_TEAM\NETWORKGAME\DIEPIO\DIEPIO\WAITROOM.CPP
C:\지은\학교\3학년2학기\네트워크 게임 프로그래밍\NETWORKGAME_TEAM\NETWORKGAME\DIEPIO\DIEPIO\DEBUG\VC142.PDB
^C:\지은\학교\3학년2학기\네트워크 게임 프로그래밍\NETWORKGAME_TEAM\NETWORKGAME\DIEPIO\DIEPIO\CLICKBUTTONCPP|C:\지은\학교\3학년2학기\네트워크 게임 프로그래밍\NETWORKGAME_TEAM\NETWORKGAME\DIEPIO\DIEPIO\MENU.CPP
C:\지은\학교\3학년2학기\네트워크 게임 프로그래밍\NETWORKGAME_TEAM\NETWORKGAME\DIEPIO\DIEPIO\DEBUG\VC142.PDB
C:\지은\학교\3학년2학기\네트워크 게임 프로그래밍\NETWORKGAME_TEAM\NETWORKGAME\DIEPIO\DIEPIO\DEBUG\VC142.IDB
C:\지은\학교\3학년2학기\네트워크 게임 프로그래밍\NETWORKGAME_TEAM\NETWORKGAME\DIEPIO\DIEPIO\DEBUG\MENU.OBJ
^C:\지은\학교\3학년2학기\네트워크 게임 프로그래밍\NETWORKGAME_TEAM\NETWORKGAME\DIEPIO\DIEPIO\MENU.CPP
C:\지은\학교\3학년2학기\네트워크 게임 프로그래밍\NETWORKGAME_TEAM\NETWORKGAME\DIEPIO\DIEPIO\DEBUG\MENU.OBJ
^C:\지은\학교\3학년2학기\네트워크 게임 프로그래밍\NETWORKGAME_TEAM\NETWORKGAME\DIEPIO\DIEPIO\CLICKBUTTON.CPP
C:\지은\학교\3학년2학기\네트워크 게임 프로그래밍\NETWORKGAME_TEAM\NETWORKGAME\DIEPIO\DIEPIO\DEBUG\VC142.PDB
C:\지은\학교\3학년2학기\네트워크 게임 프로그래밍\NETWORKGAME_TEAM\NETWORKGAME\DIEPIO\DIEPIO\DEBUG\VC142.IDB
C:\지은\학교\3학년2학기\네트워크 게임 프로그래밍\NETWORKGAME_TEAM\NETWORKGAME\DIEPIO\DIEPIO\DEBUG\CLICKBUTTON.OBJ
